^C:\USERS\PIO-F\DESKTOP\PROJECTS\GRAPHICSPROG\GP-EXAM-DP-ARKANOID\ARKANOID\PCH.CPP
/c /I"C:\USERS\PIO-F\DESKTOP\PROJECTS\GRAPHICSPROG\GP-EXAM-DP-ARKANOID\PACKAGES\DIRECTXTK_DESKTOP_2017.2021.11.8.1\BUILD\NATIVE\..\..\INCLUDE" /I"C:\USERS\PIO-F\DESKTOP\PROJECTS\GRAPHICSPROG\GP-EXAM-DP-ARKANOID\PACKAGES\MICROSOFT.XAUDIO2.REDIST.1.2.8\BUILD\NATIVE\INCLUDE" /I"C:\USERS\PIO-F\DESKTOP\PROJECTS\GRAPHICSPROG\GP-EXAM-DP-ARKANOID\ARKANOID\\" /ZI /JMC /nologo /W4 /WX- /diagnostics:column /Od /Oy- /D HAS_DIRECTXTK /D USING_XAUDIO2_REDIST /D WIN32 /D _DEBUG /D _WINDOWS /D _UNICODE /D UNICODE /Gm- /EHsc /RTC1 /MDd /GS /arch:SSE2 /fp:fast /Zc:wchar_t /Zc:forScope /Zc:inline /Yc"pch.h" /Fp"DEBUG\ARKANOID.PCH" /Fo"DEBUG\\" /Fd"DEBUG\VC142.PDB" /external:W4 /Gd /TP /analyze- /FC C:\USERS\PIO-F\DESKTOP\PROJECTS\GRAPHICSPROG\GP-EXAM-DP-ARKANOID\ARKANOID\PCH.CPP
^C:\USERS\PIO-F\DESKTOP\PROJECTS\GRAPHICSPROG\GP-EXAM-DP-ARKANOID\ARKANOID\BALL.CPP
/c /I"C:\USERS\PIO-F\DESKTOP\PROJECTS\GRAPHICSPROG\GP-EXAM-DP-ARKANOID\PACKAGES\DIRECTXTK_DESKTOP_2017.2021.11.8.1\BUILD\NATIVE\..\..\INCLUDE" /I"C:\USERS\PIO-F\DESKTOP\PROJECTS\GRAPHICSPROG\GP-EXAM-DP-ARKANOID\PACKAGES\MICROSOFT.XAUDIO2.REDIST.1.2.8\BUILD\NATIVE\INCLUDE" /I"C:\USERS\PIO-F\DESKTOP\PROJECTS\GRAPHICSPROG\GP-EXAM-DP-ARKANOID\ARKANOID\\" /ZI /JMC /nologo /W4 /WX- /diagnostics:column /Od /Oy- /D HAS_DIRECTXTK /D USING_XAUDIO2_REDIST /D WIN32 /D _DEBUG /D _WINDOWS /D _UNICODE /D UNICODE /Gm- /EHsc /RTC1 /MDd /GS /arch:SSE2 /fp:fast /Zc:wchar_t /Zc:forScope /Zc:inline /Yu"pch.h" /Fp"DEBUG\ARKANOID.PCH" /Fo"DEBUG\\" /Fd"DEBUG\VC142.PDB" /external:W4 /Gd /TP /analyze- /FC C:\USERS\PIO-F\DESKTOP\PROJECTS\GRAPHICSPROG\GP-EXAM-DP-ARKANOID\ARKANOID\BALL.CPP
^C:\USERS\PIO-F\DESKTOP\PROJECTS\GRAPHICSPROG\GP-EXAM-DP-ARKANOID\ARKANOID\BRICK.CPP
/c /I"C:\USERS\PIO-F\DESKTOP\PROJECTS\GRAPHICSPROG\GP-EXAM-DP-ARKANOID\PACKAGES\DIRECTXTK_DESKTOP_2017.2021.11.8.1\BUILD\NATIVE\..\..\INCLUDE" /I"C:\USERS\PIO-F\DESKTOP\PROJECTS\GRAPHICSPROG\GP-EXAM-DP-ARKANOID\PACKAGES\MICROSOFT.XAUDIO2.REDIST.1.2.8\BUILD\NATIVE\INCLUDE" /I"C:\USERS\PIO-F\DESKTOP\PROJECTS\GRAPHICSPROG\GP-EXAM-DP-ARKANOID\ARKANOID\\" /ZI /JMC /nologo /W4 /WX- /diagnostics:column /Od /Oy- /D HAS_DIRECTXTK /D USING_XAUDIO2_REDIST /D WIN32 /D _DEBUG /D _WINDOWS /D _UNICODE /D UNICODE /Gm- /EHsc /RTC1 /MDd /GS /arch:SSE2 /fp:fast /Zc:wchar_t /Zc:forScope /Zc:inline /Yu"pch.h" /Fp"DEBUG\ARKANOID.PCH" /Fo"DEBUG\\" /Fd"DEBUG\VC142.PDB" /external:W4 /Gd /TP /analyze- /FC C:\USERS\PIO-F\DESKTOP\PROJECTS\GRAPHICSPROG\GP-EXAM-DP-ARKANOID\ARKANOID\BRICK.CPP
^C:\USERS\PIO-F\DESKTOP\PROJECTS\GRAPHICSPROG\GP-EXAM-DP-ARKANOID\ARKANOID\COLLIDER.CPP
/c /I"C:\USERS\PIO-F\DESKTOP\PROJECTS\GRAPHICSPROG\GP-EXAM-DP-ARKANOID\PACKAGES\DIRECTXTK_DESKTOP_2017.2021.11.8.1\BUILD\NATIVE\..\..\INCLUDE" /I"C:\USERS\PIO-F\DESKTOP\PROJECTS\GRAPHICSPROG\GP-EXAM-DP-ARKANOID\PACKAGES\MICROSOFT.XAUDIO2.REDIST.1.2.8\BUILD\NATIVE\INCLUDE" /I"C:\USERS\PIO-F\DESKTOP\PROJECTS\GRAPHICSPROG\GP-EXAM-DP-ARKANOID\ARKANOID\\" /ZI /JMC /nologo /W4 /WX- /diagnostics:column /Od /Oy- /D HAS_DIRECTXTK /D USING_XAUDIO2_REDIST /D WIN32 /D _DEBUG /D _WINDOWS /D _UNICODE /D UNICODE /Gm- /EHsc /RTC1 /MDd /GS /arch:SSE2 /fp:fast /Zc:wchar_t /Zc:forScope /Zc:inline /Yu"pch.h" /Fp"DEBUG\ARKANOID.PCH" /Fo"DEBUG\\" /Fd"DEBUG\VC142.PDB" /external:W4 /Gd /TP /analyze- /FC C:\USERS\PIO-F\DESKTOP\PROJECTS\GRAPHICSPROG\GP-EXAM-DP-ARKANOID\ARKANOID\COLLIDER.CPP
^C:\USERS\PIO-F\DESKTOP\PROJECTS\GRAPHICSPROG\GP-EXAM-DP-ARKANOID\ARKANOID\DEVICERESOURCES.CPP
/c /I"C:\USERS\PIO-F\DESKTOP\PROJECTS\GRAPHICSPROG\GP-EXAM-DP-ARKANOID\PACKAGES\DIRECTXTK_DESKTOP_2017.2021.11.8.1\BUILD\NATIVE\..\..\INCLUDE" /I"C:\USERS\PIO-F\DESKTOP\PROJECTS\GRAPHICSPROG\GP-EXAM-DP-ARKANOID\PACKAGES\MICROSOFT.XAUDIO2.REDIST.1.2.8\BUILD\NATIVE\INCLUDE" /I"C:\USERS\PIO-F\DESKTOP\PROJECTS\GRAPHICSPROG\GP-EXAM-DP-ARKANOID\ARKANOID\\" /ZI /JMC /nologo /W4 /WX- /diagnostics:column /Od /Oy- /D HAS_DIRECTXTK /D USING_XAUDIO2_REDIST /D WIN32 /D _DEBUG /D _WINDOWS /D _UNICODE /D UNICODE /Gm- /EHsc /RTC1 /MDd /GS /arch:SSE2 /fp:fast /Zc:wchar_t /Zc:forScope /Zc:inline /Yu"pch.h" /Fp"DEBUG\ARKANOID.PCH" /Fo"DEBUG\\" /Fd"DEBUG\VC142.PDB" /external:W4 /Gd /TP /analyze- /FC C:\USERS\PIO-F\DESKTOP\PROJECTS\GRAPHICSPROG\GP-EXAM-DP-ARKANOID\ARKANOID\DEVICERESOURCES.CPP
^C:\USERS\PIO-F\DESKTOP\PROJECTS\GRAPHICSPROG\GP-EXAM-DP-ARKANOID\ARKANOID\GAME.CPP
/c /I"C:\USERS\PIO-F\DESKTOP\PROJECTS\GRAPHICSPROG\GP-EXAM-DP-ARKANOID\PACKAGES\DIRECTXTK_DESKTOP_2017.2021.11.8.1\BUILD\NATIVE\..\..\INCLUDE" /I"C:\USERS\PIO-F\DESKTOP\PROJECTS\GRAPHICSPROG\GP-EXAM-DP-ARKANOID\PACKAGES\MICROSOFT.XAUDIO2.REDIST.1.2.8\BUILD\NATIVE\INCLUDE" /I"C:\USERS\PIO-F\DESKTOP\PROJECTS\GRAPHICSPROG\GP-EXAM-DP-ARKANOID\ARKANOID\\" /ZI /JMC /nologo /W4 /WX- /diagnostics:column /Od /Oy- /D HAS_DIRECTXTK /D USING_XAUDIO2_REDIST /D WIN32 /D _DEBUG /D _WINDOWS /D _UNICODE /D UNICODE /Gm- /EHsc /RTC1 /MDd /GS /arch:SSE2 /fp:fast /Zc:wchar_t /Zc:forScope /Zc:inline /Yu"pch.h" /Fp"DEBUG\ARKANOID.PCH" /Fo"DEBUG\\" /Fd"DEBUG\VC142.PDB" /external:W4 /Gd /TP /analyze- /FC C:\USERS\PIO-F\DESKTOP\PROJECTS\GRAPHICSPROG\GP-EXAM-DP-ARKANOID\ARKANOID\GAME.CPP
^C:\USERS\PIO-F\DESKTOP\PROJECTS\GRAPHICSPROG\GP-EXAM-DP-ARKANOID\ARKANOID\GAMECONTROLLER.CPP
/c /I"C:\USERS\PIO-F\DESKTOP\PROJECTS\GRAPHICSPROG\GP-EXAM-DP-ARKANOID\PACKAGES\DIRECTXTK_DESKTOP_2017.2021.11.8.1\BUILD\NATIVE\..\..\INCLUDE" /I"C:\USERS\PIO-F\DESKTOP\PROJECTS\GRAPHICSPROG\GP-EXAM-DP-ARKANOID\PACKAGES\MICROSOFT.XAUDIO2.REDIST.1.2.8\BUILD\NATIVE\INCLUDE" /I"C:\USERS\PIO-F\DESKTOP\PROJECTS\GRAPHICSPROG\GP-EXAM-DP-ARKANOID\ARKANOID\\" /ZI /JMC /nologo /W4 /WX- /diagnostics:column /Od /Oy- /D HAS_DIRECTXTK /D USING_XAUDIO2_REDIST /D WIN32 /D _DEBUG /D _WINDOWS /D _UNICODE /D UNICODE /Gm- /EHsc /RTC1 /MDd /GS /arch:SSE2 /fp:fast /Zc:wchar_t /Zc:forScope /Zc:inline /Yu"pch.h" /Fp"DEBUG\ARKANOID.PCH" /Fo"DEBUG\\" /Fd"DEBUG\VC142.PDB" /external:W4 /Gd /TP /analyze- /FC C:\USERS\PIO-F\DESKTOP\PROJECTS\GRAPHICSPROG\GP-EXAM-DP-ARKANOID\ARKANOID\GAMECONTROLLER.CPP
^C:\USERS\PIO-F\DESKTOP\PROJECTS\GRAPHICSPROG\GP-EXAM-DP-ARKANOID\ARKANOID\GAMEOBJECT.CPP
/c /I"C:\USERS\PIO-F\DESKTOP\PROJECTS\GRAPHICSPROG\GP-EXAM-DP-ARKANOID\PACKAGES\DIRECTXTK_DESKTOP_2017.2021.11.8.1\BUILD\NATIVE\..\..\INCLUDE" /I"C:\USERS\PIO-F\DESKTOP\PROJECTS\GRAPHICSPROG\GP-EXAM-DP-ARKANOID\PACKAGES\MICROSOFT.XAUDIO2.REDIST.1.2.8\BUILD\NATIVE\INCLUDE" /I"C:\USERS\PIO-F\DESKTOP\PROJECTS\GRAPHICSPROG\GP-EXAM-DP-ARKANOID\ARKANOID\\" /ZI /JMC /nologo /W4 /WX- /diagnostics:column /Od /Oy- /D HAS_DIRECTXTK /D USING_XAUDIO2_REDIST /D WIN32 /D _DEBUG /D _WINDOWS /D _UNICODE /D UNICODE /Gm- /EHsc /RTC1 /MDd /GS /arch:SSE2 /fp:fast /Zc:wchar_t /Zc:forScope /Zc:inline /Yu"pch.h" /Fp"DEBUG\ARKANOID.PCH" /Fo"DEBUG\\" /Fd"DEBUG\VC142.PDB" /external:W4 /Gd /TP /analyze- /FC C:\USERS\PIO-F\DESKTOP\PROJECTS\GRAPHICSPROG\GP-EXAM-DP-ARKANOID\ARKANOID\GAMEOBJECT.CPP
^C:\USERS\PIO-F\DESKTOP\PROJECTS\GRAPHICSPROG\GP-EXAM-DP-ARKANOID\ARKANOID\MAIN.CPP
/c /I"C:\USERS\PIO-F\DESKTOP\PROJECTS\GRAPHICSPROG\GP-EXAM-DP-ARKANOID\PACKAGES\DIRECTXTK_DESKTOP_2017.2021.11.8.1\BUILD\NATIVE\..\..\INCLUDE" /I"C:\USERS\PIO-F\DESKTOP\PROJECTS\GRAPHICSPROG\GP-EXAM-DP-ARKANOID\PACKAGES\MICROSOFT.XAUDIO2.REDIST.1.2.8\BUILD\NATIVE\INCLUDE" /I"C:\USERS\PIO-F\DESKTOP\PROJECTS\GRAPHICSPROG\GP-EXAM-DP-ARKANOID\ARKANOID\\" /ZI /JMC /nologo /W4 /WX- /diagnostics:column /Od /Oy- /D HAS_DIRECTXTK /D USING_XAUDIO2_REDIST /D WIN32 /D _DEBUG /D _WINDOWS /D _UNICODE /D UNICODE /Gm- /EHsc /RTC1 /MDd /GS /arch:SSE2 /fp:fast /Zc:wchar_t /Zc:forScope /Zc:inline /Yu"pch.h" /Fp"DEBUG\ARKANOID.PCH" /Fo"DEBUG\\" /Fd"DEBUG\VC142.PDB" /external:W4 /Gd /TP /analyze- /FC C:\USERS\PIO-F\DESKTOP\PROJECTS\GRAPHICSPROG\GP-EXAM-DP-ARKANOID\ARKANOID\MAIN.CPP
^C:\USERS\PIO-F\DESKTOP\PROJECTS\GRAPHICSPROG\GP-EXAM-DP-ARKANOID\ARKANOID\PADDLE.CPP
/c /I"C:\USERS\PIO-F\DESKTOP\PROJECTS\GRAPHICSPROG\GP-EXAM-DP-ARKANOID\PACKAGES\DIRECTXTK_DESKTOP_2017.2021.11.8.1\BUILD\NATIVE\..\..\INCLUDE" /I"C:\USERS\PIO-F\DESKTOP\PROJECTS\GRAPHICSPROG\GP-EXAM-DP-ARKANOID\PACKAGES\MICROSOFT.XAUDIO2.REDIST.1.2.8\BUILD\NATIVE\INCLUDE" /I"C:\USERS\PIO-F\DESKTOP\PROJECTS\GRAPHICSPROG\GP-EXAM-DP-ARKANOID\ARKANOID\\" /ZI /JMC /nologo /W4 /WX- /diagnostics:column /Od /Oy- /D HAS_DIRECTXTK /D USING_XAUDIO2_REDIST /D WIN32 /D _DEBUG /D _WINDOWS /D _UNICODE /D UNICODE /Gm- /EHsc /RTC1 /MDd /GS /arch:SSE2 /fp:fast /Zc:wchar_t /Zc:forScope /Zc:inline /Yu"pch.h" /Fp"DEBUG\ARKANOID.PCH" /Fo"DEBUG\\" /Fd"DEBUG\VC142.PDB" /external:W4 /Gd /TP /analyze- /FC C:\USERS\PIO-F\DESKTOP\PROJECTS\GRAPHICSPROG\GP-EXAM-DP-ARKANOID\ARKANOID\PADDLE.CPP
^C:\USERS\PIO-F\DESKTOP\PROJECTS\GRAPHICSPROG\GP-EXAM-DP-ARKANOID\ARKANOID\WALL.CPP
/c /I"C:\USERS\PIO-F\DESKTOP\PROJECTS\GRAPHICSPROG\GP-EXAM-DP-ARKANOID\PACKAGES\DIRECTXTK_DESKTOP_2017.2021.11.8.1\BUILD\NATIVE\..\..\INCLUDE" /I"C:\USERS\PIO-F\DESKTOP\PROJECTS\GRAPHICSPROG\GP-EXAM-DP-ARKANOID\PACKAGES\MICROSOFT.XAUDIO2.REDIST.1.2.8\BUILD\NATIVE\INCLUDE" /I"C:\USERS\PIO-F\DESKTOP\PROJECTS\GRAPHICSPROG\GP-EXAM-DP-ARKANOID\ARKANOID\\" /ZI /JMC /nologo /W4 /WX- /diagnostics:column /Od /Oy- /D HAS_DIRECTXTK /D USING_XAUDIO2_REDIST /D WIN32 /D _DEBUG /D _WINDOWS /D _UNICODE /D UNICODE /Gm- /EHsc /RTC1 /MDd /GS /arch:SSE2 /fp:fast /Zc:wchar_t /Zc:forScope /Zc:inline /Yu"pch.h" /Fp"DEBUG\ARKANOID.PCH" /Fo"DEBUG\\" /Fd"DEBUG\VC142.PDB" /external:W4 /Gd /TP /analyze- /FC C:\USERS\PIO-F\DESKTOP\PROJECTS\GRAPHICSPROG\GP-EXAM-DP-ARKANOID\ARKANOID\WALL.CPP
