^C:\USERS\PIO-F\DESKTOP\PROJECTS\GRAPHICSPROG\GP-EXAM-DP-ARKANOID\ARKANOID\PCH.CPP
C:\USERS\PIO-F\DESKTOP\PROJECTS\GRAPHICSPROG\GP-EXAM-DP-ARKANOID\ARKANOID\DEBUG\ARKANOID.PCH
C:\USERS\PIO-F\DESKTOP\PROJECTS\GRAPHICSPROG\GP-EXAM-DP-ARKANOID\ARKANOID\DEBUG\VC142.PDB
C:\USERS\PIO-F\DESKTOP\PROJECTS\GRAPHICSPROG\GP-EXAM-DP-ARKANOID\ARKANOID\DEBUG\VC142.IDB
C:\USERS\PIO-F\DESKTOP\PROJECTS\GRAPHICSPROG\GP-EXAM-DP-ARKANOID\ARKANOID\DEBUG\PCH.OBJ
^C:\USERS\PIO-F\DESKTOP\PROJECTS\GRAPHICSPROG\GP-EXAM-DP-ARKANOID\ARKANOID\BALL.CPP|C:\USERS\PIO-F\DESKTOP\PROJECTS\GRAPHICSPROG\GP-EXAM-DP-ARKANOID\ARKANOID\BRICK.CPP|C:\USERS\PIO-F\DESKTOP\PROJECTS\GRAPHICSPROG\GP-EXAM-DP-ARKANOID\ARKANOID\COLLIDER.CPP|C:\USERS\PIO-F\DESKTOP\PROJECTS\GRAPHICSPROG\GP-EXAM-DP-ARKANOID\ARKANOID\DEVICERESOURCES.CPP|C:\USERS\PIO-F\DESKTOP\PROJECTS\GRAPHICSPROG\GP-EXAM-DP-ARKANOID\ARKANOID\GAME.CPP|C:\USERS\PIO-F\DESKTOP\PROJECTS\GRAPHICSPROG\GP-EXAM-DP-ARKANOID\ARKANOID\GAMECONTROLLER.CPP|C:\USERS\PIO-F\DESKTOP\PROJECTS\GRAPHICSPROG\GP-EXAM-DP-ARKANOID\ARKANOID\GAMEOBJECT.CPP|C:\USERS\PIO-F\DESKTOP\PROJECTS\GRAPHICSPROG\GP-EXAM-DP-ARKANOID\ARKANOID\MAIN.CPP|C:\USERS\PIO-F\DESKTOP\PROJECTS\GRAPHICSPROG\GP-EXAM-DP-ARKANOID\ARKANOID\PADDLE.CPP|C:\USERS\PIO-F\DESKTOP\PROJECTS\GRAPHICSPROG\GP-EXAM-DP-ARKANOID\ARKANOID\WALL.CPP
C:\USERS\PIO-F\DESKTOP\PROJECTS\GRAPHICSPROG\GP-EXAM-DP-ARKANOID\ARKANOID\DEBUG\VC142.PDB
C:\USERS\PIO-F\DESKTOP\PROJECTS\GRAPHICSPROG\GP-EXAM-DP-ARKANOID\ARKANOID\DEBUG\VC142.IDB
C:\USERS\PIO-F\DESKTOP\PROJECTS\GRAPHICSPROG\GP-EXAM-DP-ARKANOID\ARKANOID\DEBUG\WALL.OBJ
C:\USERS\PIO-F\DESKTOP\PROJECTS\GRAPHICSPROG\GP-EXAM-DP-ARKANOID\ARKANOID\DEBUG\PADDLE.OBJ
C:\USERS\PIO-F\DESKTOP\PROJECTS\GRAPHICSPROG\GP-EXAM-DP-ARKANOID\ARKANOID\DEBUG\MAIN.OBJ
C:\USERS\PIO-F\DESKTOP\PROJECTS\GRAPHICSPROG\GP-EXAM-DP-ARKANOID\ARKANOID\DEBUG\GAMEOBJECT.OBJ
C:\USERS\PIO-F\DESKTOP\PROJECTS\GRAPHICSPROG\GP-EXAM-DP-ARKANOID\ARKANOID\DEBUG\GAMECONTROLLER.OBJ
C:\USERS\PIO-F\DESKTOP\PROJECTS\GRAPHICSPROG\GP-EXAM-DP-ARKANOID\ARKANOID\DEBUG\GAME.OBJ
C:\USERS\PIO-F\DESKTOP\PROJECTS\GRAPHICSPROG\GP-EXAM-DP-ARKANOID\ARKANOID\DEBUG\DEVICERESOURCES.OBJ
C:\USERS\PIO-F\DESKTOP\PROJECTS\GRAPHICSPROG\GP-EXAM-DP-ARKANOID\ARKANOID\DEBUG\COLLIDER.OBJ
C:\USERS\PIO-F\DESKTOP\PROJECTS\GRAPHICSPROG\GP-EXAM-DP-ARKANOID\ARKANOID\DEBUG\BRICK.OBJ
C:\USERS\PIO-F\DESKTOP\PROJECTS\GRAPHICSPROG\GP-EXAM-DP-ARKANOID\ARKANOID\DEBUG\BALL.OBJ
^C:\USERS\PIO-F\DESKTOP\PROJECTS\GRAPHICSPROG\GP-EXAM-DP-ARKANOID\ARKANOID\BALL.CPP
C:\USERS\PIO-F\DESKTOP\PROJECTS\GRAPHICSPROG\GP-EXAM-DP-ARKANOID\ARKANOID\DEBUG\VC142.PDB
^C:\USERS\PIO-F\DESKTOP\PROJECTS\GRAPHICSPROG\GP-EXAM-DP-ARKANOID\ARKANOID\BRICK.CPP
C:\USERS\PIO-F\DESKTOP\PROJECTS\GRAPHICSPROG\GP-EXAM-DP-ARKANOID\ARKANOID\DEBUG\VC142.PDB
^C:\USERS\PIO-F\DESKTOP\PROJECTS\GRAPHICSPROG\GP-EXAM-DP-ARKANOID\ARKANOID\COLLIDER.CPP
C:\USERS\PIO-F\DESKTOP\PROJECTS\GRAPHICSPROG\GP-EXAM-DP-ARKANOID\ARKANOID\DEBUG\VC142.PDB
^C:\USERS\PIO-F\DESKTOP\PROJECTS\GRAPHICSPROG\GP-EXAM-DP-ARKANOID\ARKANOID\DEVICERESOURCES.CPP
C:\USERS\PIO-F\DESKTOP\PROJECTS\GRAPHICSPROG\GP-EXAM-DP-ARKANOID\ARKANOID\DEBUG\VC142.PDB
^C:\USERS\PIO-F\DESKTOP\PROJECTS\GRAPHICSPROG\GP-EXAM-DP-ARKANOID\ARKANOID\GAME.CPP
C:\USERS\PIO-F\DESKTOP\PROJECTS\GRAPHICSPROG\GP-EXAM-DP-ARKANOID\ARKANOID\DEBUG\VC142.PDB
^C:\USERS\PIO-F\DESKTOP\PROJECTS\GRAPHICSPROG\GP-EXAM-DP-ARKANOID\ARKANOID\GAMECONTROLLER.CPP
C:\USERS\PIO-F\DESKTOP\PROJECTS\GRAPHICSPROG\GP-EXAM-DP-ARKANOID\ARKANOID\DEBUG\VC142.PDB
^C:\USERS\PIO-F\DESKTOP\PROJECTS\GRAPHICSPROG\GP-EXAM-DP-ARKANOID\ARKANOID\GAMEOBJECT.CPP
C:\USERS\PIO-F\DESKTOP\PROJECTS\GRAPHICSPROG\GP-EXAM-DP-ARKANOID\ARKANOID\DEBUG\VC142.PDB
^C:\USERS\PIO-F\DESKTOP\PROJECTS\GRAPHICSPROG\GP-EXAM-DP-ARKANOID\ARKANOID\MAIN.CPP
C:\USERS\PIO-F\DESKTOP\PROJECTS\GRAPHICSPROG\GP-EXAM-DP-ARKANOID\ARKANOID\DEBUG\VC142.PDB
^C:\USERS\PIO-F\DESKTOP\PROJECTS\GRAPHICSPROG\GP-EXAM-DP-ARKANOID\ARKANOID\PADDLE.CPP
C:\USERS\PIO-F\DESKTOP\PROJECTS\GRAPHICSPROG\GP-EXAM-DP-ARKANOID\ARKANOID\DEBUG\VC142.PDB
^C:\USERS\PIO-F\DESKTOP\PROJECTS\GRAPHICSPROG\GP-EXAM-DP-ARKANOID\ARKANOID\WALL.CPP
C:\USERS\PIO-F\DESKTOP\PROJECTS\GRAPHICSPROG\GP-EXAM-DP-ARKANOID\ARKANOID\DEBUG\VC142.PDB
