#Command: "C:\Program Files (x86)\Microsoft Visual Studio\2019\Community\VC\Tools\MSVC\14.29.30133\bin\HostX64\x86\link.exe" /ERRORREPORT:PROMPT @C:\Users\pio-f\AppData\Local\Temp\tmp83d20523a39c42389ab02e2221646909.rsp
^C:\USERS\PIO-F\DESKTOP\PROJECTS\GRAPHICSPROG\GP-EXAM-DP-ARKANOID\ARKANOID\DEBUG\BALL.OBJ|C:\USERS\PIO-F\DESKTOP\PROJECTS\GRAPHICSPROG\GP-EXAM-DP-ARKANOID\ARKANOID\DEBUG\BRICK.OBJ|C:\USERS\PIO-F\DESKTOP\PROJECTS\GRAPHICSPROG\GP-EXAM-DP-ARKANOID\ARKANOID\DEBUG\COLLIDER.OBJ|C:\USERS\PIO-F\DESKTOP\PROJECTS\GRAPHICSPROG\GP-EXAM-DP-ARKANOID\ARKANOID\DEBUG\DEVICERESOURCES.OBJ|C:\USERS\PIO-F\DESKTOP\PROJECTS\GRAPHICSPROG\GP-EXAM-DP-ARKANOID\ARKANOID\DEBUG\GAME.OBJ|C:\USERS\PIO-F\DESKTOP\PROJECTS\GRAPHICSPROG\GP-EXAM-DP-ARKANOID\ARKANOID\DEBUG\GAMECONTROLLER.OBJ|C:\USERS\PIO-F\DESKTOP\PROJECTS\GRAPHICSPROG\GP-EXAM-DP-ARKANOID\ARKANOID\DEBUG\GAMEOBJECT.OBJ|C:\USERS\PIO-F\DESKTOP\PROJECTS\GRAPHICSPROG\GP-EXAM-DP-ARKANOID\ARKANOID\DEBUG\MAIN.OBJ|C:\USERS\PIO-F\DESKTOP\PROJECTS\GRAPHICSPROG\GP-EXAM-DP-ARKANOID\ARKANOID\DEBUG\PADDLE.OBJ|C:\USERS\PIO-F\DESKTOP\PROJECTS\GRAPHICSPROG\GP-EXAM-DP-ARKANOID\ARKANOID\DEBUG\PCH.OBJ|C:\USERS\PIO-F\DESKTOP\PROJECTS\GRAPHICSPROG\GP-EXAM-DP-ARKANOID\ARKANOID\DEBUG\RESOURCE.RES|C:\USERS\PIO-F\DESKTOP\PROJECTS\GRAPHICSPROG\GP-EXAM-DP-ARKANOID\ARKANOID\DEBUG\WALL.OBJ
C:\USERS\PIO-F\APPDATA\LOCAL\TEMP\LNK{2A77931A-2E65-418B-900D-98E5B8665412}.TMP
